^C:\USERS\ITSHORES\SOURCE\REPOS\GTCHECKOUT\SUPPLY.CPP|C:\USERS\ITSHORES\SOURCE\REPOS\GTCHECKOUT\SUPPLYTESTS.CPP
C:\USERS\ITSHORES\SOURCE\REPOS\GTCHECKOUT\RELEASE\VC142.PDB
C:\USERS\ITSHORES\SOURCE\REPOS\GTCHECKOUT\RELEASE\SUPPLYTESTS.OBJ
C:\USERS\ITSHORES\SOURCE\REPOS\GTCHECKOUT\RELEASE\SUPPLY.OBJ
^C:\USERS\ITSHORES\SOURCE\REPOS\GTCHECKOUT\CHECKOUT.CPP|C:\USERS\ITSHORES\SOURCE\REPOS\GTCHECKOUT\GTTESTS.CPP|C:\USERS\ITSHORES\SOURCE\REPOS\GTCHECKOUT\SUPPLY.CPP
C:\USERS\ITSHORES\SOURCE\REPOS\GTCHECKOUT\RELEASE\VC142.PDB
C:\USERS\ITSHORES\SOURCE\REPOS\GTCHECKOUT\RELEASE\SUPPLY.OBJ
C:\USERS\ITSHORES\SOURCE\REPOS\GTCHECKOUT\RELEASE\GTTESTS.OBJ
C:\USERS\ITSHORES\SOURCE\REPOS\GTCHECKOUT\RELEASE\CHECKOUT.OBJ
^C:\USERS\ITSHORES\SOURCE\REPOS\GTCHECKOUT\CHECKOUT.CPP|C:\USERS\ITSHORES\SOURCE\REPOS\GTCHECKOUT\GTTESTS.CPP|C:\USERS\ITSHORES\SOURCE\REPOS\GTCHECKOUT\SUPPLY.CPP|C:\USERS\ITSHORES\SOURCE\REPOS\GTCHECKOUT\SUPPLYTESTS.CPP
C:\USERS\ITSHORES\SOURCE\REPOS\GTCHECKOUT\RELEASE\VC142.PDB
C:\USERS\ITSHORES\SOURCE\REPOS\GTCHECKOUT\RELEASE\SUPPLYTESTS.OBJ
C:\USERS\ITSHORES\SOURCE\REPOS\GTCHECKOUT\RELEASE\SUPPLY.OBJ
C:\USERS\ITSHORES\SOURCE\REPOS\GTCHECKOUT\RELEASE\GTTESTS.OBJ
C:\USERS\ITSHORES\SOURCE\REPOS\GTCHECKOUT\RELEASE\CHECKOUT.OBJ
^C:\USERS\ITSHORES\SOURCE\REPOS\GTCHECKOUT\SUPPLY.CPP
C:\USERS\ITSHORES\SOURCE\REPOS\GTCHECKOUT\RELEASE\VC142.PDB
^C:\USERS\ITSHORES\SOURCE\REPOS\GTCHECKOUT\SUPPLYTESTS.CPP
C:\USERS\ITSHORES\SOURCE\REPOS\GTCHECKOUT\RELEASE\VC142.PDB
^C:\USERS\ITSHORES\SOURCE\REPOS\GTCHECKOUT\CHECKOUT.CPP|C:\USERS\ITSHORES\SOURCE\REPOS\GTCHECKOUT\GTTESTS.CPP
C:\USERS\ITSHORES\SOURCE\REPOS\GTCHECKOUT\RELEASE\VC142.PDB
C:\USERS\ITSHORES\SOURCE\REPOS\GTCHECKOUT\RELEASE\GTTESTS.OBJ
C:\USERS\ITSHORES\SOURCE\REPOS\GTCHECKOUT\RELEASE\CHECKOUT.OBJ
^C:\USERS\ITSHORES\SOURCE\REPOS\GTCHECKOUT\CHECKOUT.CPP
C:\USERS\ITSHORES\SOURCE\REPOS\GTCHECKOUT\RELEASE\VC142.PDB
^C:\USERS\ITSHORES\SOURCE\REPOS\GTCHECKOUT\GTTESTS.CPP
C:\USERS\ITSHORES\SOURCE\REPOS\GTCHECKOUT\RELEASE\VC142.PDB
C:\USERS\ITSHORES\SOURCE\REPOS\GTCHECKOUT\RELEASE\GTTESTS.OBJ
