^C:\USERS\ITSHORES\SOURCE\REPOS\GTCHECKOUT\RELEASE\CHECKOUT.OBJ|C:\USERS\ITSHORES\SOURCE\REPOS\GTCHECKOUT\RELEASE\GTTESTS.OBJ|C:\USERS\ITSHORES\SOURCE\REPOS\GTCHECKOUT\RELEASE\SUPPLY.OBJ|C:\USERS\ITSHORES\SOURCE\REPOS\GTCHECKOUT\RELEASE\SUPPLYTESTS.OBJ
C:\USERS\ITSHORES\SOURCE\REPOS\GOOGLETEST-RELEASE-1.7.0\GOOGLETEST-RELEASE-1.7.0\MSVC\GTEST\RELEASE\GTEST_MAIN.LIB
C:\USERS\ITSHORES\SOURCE\REPOS\GOOGLETEST-RELEASE-1.7.0\GOOGLETEST-RELEASE-1.7.0\MSVC\GTEST\RELEASE\GTEST.LIB
C:\PROGRAM FILES (X86)\WINDOWS KITS\10\LIB\10.0.18362.0\UM\X86\KERNEL32.LIB
C:\PROGRAM FILES (X86)\WINDOWS KITS\10\LIB\10.0.18362.0\UM\X86\USER32.LIB
C:\PROGRAM FILES (X86)\WINDOWS KITS\10\LIB\10.0.18362.0\UM\X86\GDI32.LIB
C:\PROGRAM FILES (X86)\WINDOWS KITS\10\LIB\10.0.18362.0\UM\X86\WINSPOOL.LIB
C:\PROGRAM FILES (X86)\WINDOWS KITS\10\LIB\10.0.18362.0\UM\X86\COMDLG32.LIB
C:\PROGRAM FILES (X86)\WINDOWS KITS\10\LIB\10.0.18362.0\UM\X86\ADVAPI32.LIB
C:\PROGRAM FILES (X86)\WINDOWS KITS\10\LIB\10.0.18362.0\UM\X86\SHELL32.LIB
C:\PROGRAM FILES (X86)\WINDOWS KITS\10\LIB\10.0.18362.0\UM\X86\OLE32.LIB
C:\PROGRAM FILES (X86)\WINDOWS KITS\10\LIB\10.0.18362.0\UM\X86\OLEAUT32.LIB
C:\PROGRAM FILES (X86)\WINDOWS KITS\10\LIB\10.0.18362.0\UM\X86\UUID.LIB
C:\PROGRAM FILES (X86)\WINDOWS KITS\10\LIB\10.0.18362.0\UM\X86\ODBC32.LIB
C:\PROGRAM FILES (X86)\WINDOWS KITS\10\LIB\10.0.18362.0\UM\X86\ODBCCP32.LIB
C:\USERS\ITSHORES\SOURCE\REPOS\GTCHECKOUT\RELEASE\CHECKOUT.OBJ
C:\USERS\ITSHORES\SOURCE\REPOS\GTCHECKOUT\RELEASE\GTTESTS.OBJ
C:\USERS\ITSHORES\SOURCE\REPOS\GTCHECKOUT\RELEASE\SUPPLY.OBJ
C:\USERS\ITSHORES\SOURCE\REPOS\GTCHECKOUT\RELEASE\SUPPLYTESTS.OBJ
C:\WINDOWS\GLOBALIZATION\SORTING\SORTDEFAULT.NLS
C:\PROGRAM FILES (X86)\MICROSOFT VISUAL STUDIO\2019\ENTERPRISE\VC\TOOLS\MSVC\14.26.28801\BIN\HOSTX86\X86\C2.DLL
C:\PROGRAM FILES (X86)\MICROSOFT VISUAL STUDIO\2019\ENTERPRISE\VC\TOOLS\MSVC\14.26.28801\LIB\X86\LIBCPMT.LIB
C:\PROGRAM FILES (X86)\MICROSOFT VISUAL STUDIO\2019\ENTERPRISE\VC\TOOLS\MSVC\14.26.28801\LIB\X86\LIBCMT.LIB
C:\PROGRAM FILES (X86)\MICROSOFT VISUAL STUDIO\2019\ENTERPRISE\VC\TOOLS\MSVC\14.26.28801\LIB\X86\OLDNAMES.LIB
C:\PROGRAM FILES (X86)\MICROSOFT VISUAL STUDIO\2019\ENTERPRISE\VC\TOOLS\MSVC\14.26.28801\LIB\X86\LIBVCRUNTIME.LIB
C:\PROGRAM FILES (X86)\WINDOWS KITS\10\LIB\10.0.18362.0\UCRT\X86\LIBUCRT.LIB
C:\PROGRAM FILES (X86)\MICROSOFT VISUAL STUDIO\2019\ENTERPRISE\VC\TOOLS\MSVC\14.26.28801\BIN\HOSTX86\X86\1033\LINKUI.DLL
C:\PROGRAM FILES (X86)\MICROSOFT VISUAL STUDIO\2019\ENTERPRISE\VC\TOOLS\MSVC\14.26.28801\BIN\HOSTX86\X86\CVTRES.EXE
C:\WINDOWS\SYSTEM32\TZRES.DLL
