^C:\USERS\ITSHORES\SOURCE\REPOS\GTCHECKOUT\CHECKOUT.CPP
/c /I"C:\USERS\ITSHORES\SOURCE\REPOS\GOOGLETEST-RELEASE-1.7.0\GOOGLETEST-RELEASE-1.7.0\INCLUDE" /ZI /JMC /nologo /W3 /WX- /diagnostics:column /sdl /Od /Oy- /D WIN32 /D _DEBUG /D _CONSOLE /D _UNICODE /D UNICODE /Gm- /EHsc /RTC1 /MDd /GS /fp:precise /permissive- /Zc:wchar_t /Zc:forScope /Zc:inline /Fo"DEBUG\\" /Fd"DEBUG\VC142.PDB" /Gd /TP /wd4996 /analyze- /FC C:\USERS\ITSHORES\SOURCE\REPOS\GTCHECKOUT\CHECKOUT.CPP
^C:\USERS\ITSHORES\SOURCE\REPOS\GTCHECKOUT\GTTESTS.CPP
/c /I"C:\USERS\ITSHORES\SOURCE\REPOS\GOOGLETEST-RELEASE-1.7.0\GOOGLETEST-RELEASE-1.7.0\INCLUDE" /ZI /JMC /nologo /W3 /WX- /diagnostics:column /sdl /Od /Oy- /D WIN32 /D _DEBUG /D _CONSOLE /D _UNICODE /D UNICODE /Gm- /EHsc /RTC1 /MDd /GS /fp:precise /permissive- /Zc:wchar_t /Zc:forScope /Zc:inline /Fo"DEBUG\\" /Fd"DEBUG\VC142.PDB" /Gd /TP /wd4996 /analyze- /FC C:\USERS\ITSHORES\SOURCE\REPOS\GTCHECKOUT\GTTESTS.CPP
^C:\USERS\ITSHORES\SOURCE\REPOS\GTCHECKOUT\SUPPLY.CPP
/c /I"C:\USERS\ITSHORES\SOURCE\REPOS\GOOGLETEST-RELEASE-1.7.0\GOOGLETEST-RELEASE-1.7.0\INCLUDE" /ZI /JMC /nologo /W3 /WX- /diagnostics:column /sdl /Od /Oy- /D WIN32 /D _DEBUG /D _CONSOLE /D _UNICODE /D UNICODE /Gm- /EHsc /RTC1 /MDd /GS /fp:precise /permissive- /Zc:wchar_t /Zc:forScope /Zc:inline /Fo"DEBUG\\" /Fd"DEBUG\VC142.PDB" /Gd /TP /wd4996 /analyze- /FC C:\USERS\ITSHORES\SOURCE\REPOS\GTCHECKOUT\SUPPLY.CPP
